{
  "label": "Symfony - MVP",
  "position": 5,
  "link": {
    "type": "generated-index",
    "description": "Documentation des différentes nouvelles features implémentées dans notre application MVP de gestion de Tickets."
  }
}
